accounts.firefox.com:HSTS	1	18621	1640434781166,1,1,2
classify-client.services.mozilla.com:HSTS	1	18621	1640434781278,1,0,2
omgubuntu.disqus.com:HSTS	0	18621	1608899100488,1,1,2
cdnjs.cloudflare.com:HSTS	0	18621	1624678800312,1,0,2
omgubuntu.co.uk:HSTS	0	18621	1640434799337,1,0,2
www.google.com^firstPartyDomain=google-b-d.search.suggestions.mozilla:HSTS	1	18621	1640434875091,1,0,2
addons.mozilla.org:HSTS	0	18614	1639827109525,1,0,2
firefox.settings.services.mozilla.com:HSTS	1	18621	1640434967941,1,0,2
services.addons.mozilla.org:HSTS	0	18614	1639827110983,1,0,2
www.mozilla.org:HSTS	1	18621	1640434780567,1,0,2
incoming.telemetry.mozilla.org:HSTS	1	18621	1624666879453,1,0,2
www.omgubuntu.co.uk:HSTS	0	18621	1640434800594,1,0,2
149366088.v2.pressablecdn.com:HSTS	0	18621	1624450800690,1,0,2
aus5.mozilla.org:HSTS	0	18621	1640434953003,1,0,2
c.disquscdn.com:HSTS	0	18621	1608899100417,1,1,2
addons.cdn.mozilla.net:HSTS	0	18614	1639827291001,1,1,2
disqus.com:HSTS	0	18621	1608899100363,1,1,2
fonts.googleapis.com:HSTS	0	18621	1640434801630,1,0,2
shavar.services.mozilla.com^firstPartyDomain=safebrowsing.86868755-6b82-4842-b301-72671a0db32e.mozilla:HSTS	1	18621	1640434781351,1,1,2
www.firefox.com:HSTS	1	18621	1640434781343,1,0,2
location.services.mozilla.com:HSTS	1	18621	1640434819117,1,1,2
add.startpage.com:HSTS	0	18614	1671363116141,1,1,2
www.startpage.com:HSTS	1	18621	1671970913597,1,1,2
normandy.cdn.mozilla.net:HSTS	1	18621	1640434781101,1,0,2
www.google-analytics.com:HSTS	1	18621	1619785200714,1,1,2
